<svg width="359" height="714" viewBox="0 0 359 714" fill="none" xmlns="http://www.w3.org/2000/svg">
<rect width="359" height="714" fill="#E5E5E5"/>
<rect width="375" height="6115.8" transform="translate(-8 -1140)" fill="#F6F6F8"/>
<g clip-path="url(#clip0_2071_43448)">
<rect width="359" height="714" rx="24" fill="#0066FF"/>
<g filter="url(#filter0_b_2071_43448)">
</g>
<g filter="url(#filter1_b_2071_43448)">
</g>
<g filter="url(#filter2_b_2071_43448)">
</g>
<path d="M543.27 -328.034C568.107 -283.738 553.941 -222.597 510.018 -159.222C466.158 -95.9401 392.903 -30.8862 300.618 20.86C208.333 72.6063 114.62 101.175 37.7512 105.588C-39.2295 110.007 -98.7841 90.2015 -123.622 45.906C-148.459 1.61046 -134.293 -59.5315 -90.3699 -122.906C-46.5104 -186.188 26.7446 -251.242 119.03 -302.988C211.315 -354.734 305.028 -383.303 381.897 -387.716C458.877 -392.135 518.432 -372.33 543.27 -328.034Z" stroke="url(#paint0_linear_2071_43448)" stroke-width="3"/>
<path d="M405.507 294.807C378.029 337.515 317.383 353.672 240.812 344.593C164.353 335.527 72.5444 301.328 -16.433 244.081C-105.41 186.834 -174.586 117.457 -214.527 51.6319C-254.527 -14.2892 -264.959 -76.1777 -237.481 -118.886C-210.003 -161.593 -149.357 -177.751 -72.7858 -168.672C3.67386 -159.606 95.4821 -125.407 184.459 -68.1597C273.437 -10.9125 342.612 58.4639 382.554 124.289C422.553 190.21 432.985 252.099 405.507 294.807Z" stroke="url(#paint1_linear_2071_43448)" stroke-width="3"/>
<path d="M299.645 6.55835L302.068 16.1473L311.076 12.0631L305.09 19.9362L313.899 24.4322L304.011 24.6607L305.989 34.3514L299.645 26.7633L293.302 34.3514L295.279 24.6607L285.391 24.4322L294.201 19.9362L288.214 12.0631L297.222 16.1473L299.645 6.55835Z" fill="#93BFFF"/>
</g>
<defs>
<filter id="filter0_b_2071_43448" x="-12" y="236" width="383" height="170" filterUnits="userSpaceOnUse" color-interpolation-filters="sRGB">
<feFlood flood-opacity="0" result="BackgroundImageFix"/>
<feGaussianBlur in="BackgroundImageFix" stdDeviation="10"/>
<feComposite in2="SourceAlpha" operator="in" result="effect1_backgroundBlur_2071_43448"/>
<feBlend mode="normal" in="SourceGraphic" in2="effect1_backgroundBlur_2071_43448" result="shape"/>
</filter>
<filter id="filter1_b_2071_43448" x="-12" y="382" width="383" height="170" filterUnits="userSpaceOnUse" color-interpolation-filters="sRGB">
<feFlood flood-opacity="0" result="BackgroundImageFix"/>
<feGaussianBlur in="BackgroundImageFix" stdDeviation="10"/>
<feComposite in2="SourceAlpha" operator="in" result="effect1_backgroundBlur_2071_43448"/>
<feBlend mode="normal" in="SourceGraphic" in2="effect1_backgroundBlur_2071_43448" result="shape"/>
</filter>
<filter id="filter2_b_2071_43448" x="-12" y="528" width="383" height="174" filterUnits="userSpaceOnUse" color-interpolation-filters="sRGB">
<feFlood flood-opacity="0" result="BackgroundImageFix"/>
<feGaussianBlur in="BackgroundImageFix" stdDeviation="10"/>
<feComposite in2="SourceAlpha" operator="in" result="effect1_backgroundBlur_2071_43448"/>
<feBlend mode="normal" in="SourceGraphic" in2="effect1_backgroundBlur_2071_43448" result="shape"/>
</filter>
<linearGradient id="paint0_linear_2071_43448" x1="491.904" y1="-395.505" x2="126.392" y2="120.964" gradientUnits="userSpaceOnUse">
<stop stop-color="white"/>
<stop offset="1" stop-color="white" stop-opacity="0"/>
</linearGradient>
<linearGradient id="paint1_linear_2071_43448" x1="448.408" y1="-175.101" x2="-9.9436" y2="158.977" gradientUnits="userSpaceOnUse">
<stop stop-color="white"/>
<stop offset="1" stop-color="white" stop-opacity="0"/>
</linearGradient>
<clipPath id="clip0_2071_43448">
<rect width="359" height="714" rx="24" fill="white"/>
</clipPath>
</defs>
</svg>
