<svg width="1248" height="474" viewBox="0 0 1248 474" fill="none" xmlns="http://www.w3.org/2000/svg">
<rect width="1248" height="474" fill="#E5E5E5"/>
<g clip-path="url(#clip0_2071_43448)">
<rect width="1440" height="4235" transform="translate(-96 -1222)" fill="#F6F6F8"/>
<g clip-path="url(#clip1_2071_43448)">
<rect width="1248" height="474" rx="24" fill="#0066FF"/>


<g filter="url(#filter0_b_2071_43448)">



</g>
<g filter="url(#filter1_b_2071_43448)">


</g>
<g filter="url(#filter2_b_2071_43448)">



</g>
<path d="M1436.75 -430.973C1470.88 -370.093 1451.35 -286.205 1391.23 -199.464C1331.18 -112.815 1230.9 -23.7723 1104.6 47.0456C978.302 117.863 850.027 156.976 744.774 163.018C639.41 169.066 557.65 141.976 523.512 81.0956C489.375 20.2148 508.908 -63.6726 569.027 -150.414C629.081 -237.063 729.36 -326.106 855.657 -396.923C981.955 -467.741 1110.23 -506.854 1215.48 -512.896C1320.85 -518.944 1402.61 -491.854 1436.75 -430.973Z" stroke="url(#paint0_linear_2071_43448)" stroke-width="3"/>
<path d="M1248.28 421.606C1210.51 480.305 1127.26 502.387 1022.45 489.961C917.762 477.547 792.094 430.728 670.323 352.382C548.552 274.036 453.858 179.076 399.168 88.9446C344.42 -1.28267 330.01 -86.2001 367.777 -144.899C405.543 -203.597 488.795 -225.68 593.599 -213.253C698.292 -200.839 823.959 -154.02 945.73 -75.6742C1067.5 2.67213 1162.2 97.6317 1216.89 187.763C1271.63 277.99 1286.04 362.908 1248.28 421.606Z" stroke="url(#paint1_linear_2071_43448)" stroke-width="3"/>
<path d="M1103 27.0002L1106.31 40.1175L1118.64 34.5304L1110.45 45.3003L1122.5 51.4507L1108.97 51.7633L1111.68 65.0196L1103 54.6396L1094.32 65.0196L1097.03 51.7633L1083.5 51.4507L1095.55 45.3003L1087.36 34.5304L1099.68 40.1175L1103 27.0002Z" fill="#93BFFF"/>
</g>
</g>
<defs>
<filter id="filter0_b_2071_43448" x="36" y="240" width="402.667" height="198" filterUnits="userSpaceOnUse" color-interpolation-filters="sRGB">
<feFlood flood-opacity="0" result="BackgroundImageFix"/>
<feGaussianBlur in="BackgroundImageFix" stdDeviation="10"/>
<feComposite in2="SourceAlpha" operator="in" result="effect1_backgroundBlur_2071_43448"/>
<feBlend mode="normal" in="SourceGraphic" in2="effect1_backgroundBlur_2071_43448" result="shape"/>
</filter>
<filter id="filter1_b_2071_43448" x="422.667" y="240" width="402.667" height="198" filterUnits="userSpaceOnUse" color-interpolation-filters="sRGB">
<feFlood flood-opacity="0" result="BackgroundImageFix"/>
<feGaussianBlur in="BackgroundImageFix" stdDeviation="10"/>
<feComposite in2="SourceAlpha" operator="in" result="effect1_backgroundBlur_2071_43448"/>
<feBlend mode="normal" in="SourceGraphic" in2="effect1_backgroundBlur_2071_43448" result="shape"/>
</filter>
<filter id="filter2_b_2071_43448" x="809.333" y="240" width="402.667" height="198" filterUnits="userSpaceOnUse" color-interpolation-filters="sRGB">
<feFlood flood-opacity="0" result="BackgroundImageFix"/>
<feGaussianBlur in="BackgroundImageFix" stdDeviation="10"/>
<feComposite in2="SourceAlpha" operator="in" result="effect1_backgroundBlur_2071_43448"/>
<feBlend mode="normal" in="SourceGraphic" in2="effect1_backgroundBlur_2071_43448" result="shape"/>
</filter>
<linearGradient id="paint0_linear_2071_43448" x1="1366" y1="-523" x2="865.999" y2="183.5" gradientUnits="userSpaceOnUse">
<stop stop-color="white"/>
<stop offset="1" stop-color="white" stop-opacity="0"/>
</linearGradient>
<linearGradient id="paint1_linear_2071_43448" x1="1306.5" y1="-221.5" x2="679.499" y2="235.5" gradientUnits="userSpaceOnUse">
<stop stop-color="white"/>
<stop offset="1" stop-color="white" stop-opacity="0"/>
</linearGradient>
<clipPath id="clip0_2071_43448">
<rect width="1440" height="4235" fill="white" transform="translate(-96 -1222)"/>
</clipPath>
<clipPath id="clip1_2071_43448">
<rect width="1248" height="474" rx="24" fill="white"/>
</clipPath>
</defs>
</svg>
